# 3ds Max Wavefront OBJ Exporter v0.97b - (c)2007 guruware
# File Created: 01.02.2017 01:37:18

newmtl default43
	Ns 22.999998
	Ni 1.500000
	d 1.000000
	Tr 0.000000
	Tf 1.000000 1.000000 1.000000 
	illum 2
	Ka 0.588235 0.588235 0.588235
	Kd 0.588235 0.588235 0.588235
	Ks 0.225000 0.225000 0.225000
	Ke 0.000000 0.000000 0.000000
	map_Ka default43DiffuseMap.jpg
	map_Kd default43DiffuseMap.jpg
